<svg width="42" height="42" viewBox="0 0 42 42" version="1.1" xmlns="http://www.w3.org/2000/svg" xmlns:xlink="http://www.w3.org/1999/xlink">
<title>Group 2</title>
<desc>Created using Figma</desc>
<g id="Canvas" transform="translate(-843 -242)">
<g id="Group 2">
<g id="Oval 3 Copy 2">
<use xlink:href="#path0_fill" transform="translate(843 242)" fill="#0098FF"/>
</g>
<g id="Fill 4">
<use xlink:href="#path1_fill" transform="translate(851.69 250.69)" fill="#FFFFFF"/>
</g>
</g>
</g>
<defs>
<path id="path0_fill" fill-rule="evenodd" d="M 21 42C 32.598 42 42 32.598 42 21C 42 9.40202 32.598 0 21 0C 9.40202 0 0 9.40202 0 21C 0 32.598 9.40202 42 21 42Z"/>
<path id="path1_fill" fill-rule="evenodd" d="M 12.2869 1.42542C 11.8877 1.42542 11.586 1.9528 11.5851 2.65348C 11.5851 2.68748 11.6083 3.53162 12.2869 3.99349C 12.973 3.52582 12.9879 2.66095 12.9879 2.65182C 12.9879 1.9528 12.687 1.42542 12.2869 1.42542ZM 4.95891 4.53166C 4.80764 4.53166 4.68282 4.57976 4.58858 4.67346C 4.3067 4.95622 4.46541 5.54413 4.95891 6.04C 4.97709 6.05742 5.45819 6.5168 6.12527 6.5168C 6.21703 6.5168 6.30961 6.50768 6.39889 6.49027C 6.55181 5.68593 5.974 5.06899 5.94755 5.04246C 5.63095 4.72321 5.2598 4.53166 4.95891 4.53166ZM 18.1733 6.49026C 18.2634 6.50768 18.3552 6.5168 18.4469 6.5168C 19.1198 6.5168 19.6108 6.04415 19.6158 6.03834C 20.1159 5.53584 20.2705 4.96202 19.9836 4.67345C 19.891 4.57975 19.7662 4.53249 19.615 4.53249C 19.3141 4.53249 18.9429 4.72321 18.6222 5.04494C 18.5618 5.10962 18.0237 5.70997 18.1733 6.49026ZM 2.64357 11.6919C 1.9335 11.6936 1.42017 11.9888 1.42017 12.3951C 1.42017 12.7965 1.94673 13.0991 2.6444 13.0991C 2.65266 13.0991 3.51483 13.0842 3.98105 12.3951C 3.5264 11.7259 2.69565 11.6928 2.64357 11.6919ZM 20.5928 12.3951C 21.059 13.0842 21.9204 13.0991 21.9287 13.0991C 22.6272 13.0991 23.1521 12.7965 23.1521 12.3951C 23.1521 11.9888 22.6396 11.6936 21.9295 11.6919C 21.8758 11.6928 21.0475 11.7259 20.5928 12.3951ZM 12.2869 19.2063L 17.0888 17.212L 19.0776 12.3951L 17.0888 7.57903L 12.2869 5.58394L 7.48507 7.57903L 5.49622 12.3951L 7.48507 17.212L 12.2869 19.2063ZM 6.12527 18.2742C 5.45901 18.2742 4.97709 18.7336 4.95642 18.7535C 4.45797 19.2552 4.30256 19.829 4.58857 20.1168C 4.68281 20.2105 4.80763 20.2577 4.95973 20.2577C 5.25979 20.2577 5.63095 20.0662 5.95085 19.7461C 5.974 19.7212 6.55346 19.1076 6.39888 18.3008C 6.30878 18.2834 6.21702 18.2742 6.12527 18.2742ZM 18.1733 18.3008C 18.0204 19.1043 18.5982 19.7212 18.6246 19.7486C 18.9429 20.0662 19.3132 20.2577 19.6141 20.2577C 19.7662 20.2577 19.891 20.2105 19.9844 20.1168C 20.2704 19.829 20.1159 19.2552 19.6149 18.751C 19.5959 18.7328 19.1198 18.2742 18.4469 18.2742C 18.356 18.2742 18.2634 18.2834 18.1733 18.3008ZM 12.2869 20.7262C 11.6083 21.1898 11.5851 22.0331 11.5843 22.0696C 11.5859 22.7785 11.881 23.2943 12.2869 23.2943C 12.687 23.2943 12.9879 22.7661 12.9879 22.0671C 12.9879 22.0588 12.973 21.1947 12.2869 20.7262ZM 12.2869 24.7206C 11.0569 24.7206 10.1642 23.6028 10.1642 22.0646C 10.1642 22.0173 10.1724 20.9684 10.8751 20.1052L 7.83639 18.8605C 7.72893 19.9435 7.03953 20.669 6.95687 20.7511C 6.35674 21.3539 5.64336 21.6848 4.94982 21.6848C 4.42244 21.6848 3.95044 21.4924 3.58424 21.1251C 3.16101 20.6997 2.96675 20.1226 3.04032 19.4973C 3.11141 18.8862 3.43628 18.2618 3.95622 17.7411C 3.98763 17.7095 4.72416 16.9724 5.84175 16.8604L 4.59934 13.8114C 3.73965 14.5154 2.69479 14.5237 2.64685 14.5237C 1.11346 14.5237 0 13.629 0 12.3951C 0 11.1621 1.11346 10.2665 2.64685 10.2665C 2.69479 10.2665 3.73882 10.2748 4.59934 10.9788L 5.84175 7.93144C 4.72663 7.81867 3.98846 7.08233 3.95539 7.04916C 3.43628 6.52924 3.11141 5.90484 3.04032 5.29288C 2.96675 4.66931 3.16018 4.09135 3.58424 3.66596C 3.95044 3.29945 4.42244 3.10541 4.94982 3.10541C 5.64336 3.10541 6.35674 3.43627 6.95687 4.03828C 6.98993 4.07145 7.72232 4.8194 7.83557 5.9264L 10.8775 4.6179C 10.1724 3.75303 10.1642 2.70241 10.1642 2.65598C 10.1642 1.11612 11.0569 0 12.2869 0C 13.517 0 14.4097 1.11612 14.4097 2.65598C 14.4097 2.70241 14.4006 3.75303 13.6963 4.6179L 16.7375 5.9264C 16.8474 4.84842 17.5343 4.12286 17.6154 4.03911C 18.2163 3.43627 18.928 3.10541 19.6224 3.10541C 20.1506 3.10541 20.6234 3.29945 20.9896 3.66596C 21.8576 4.53829 21.7022 5.96123 20.6177 7.04999C 20.5333 7.13291 19.8092 7.82282 18.733 7.93144L 19.9729 10.9788C 20.8342 10.2748 21.8791 10.2665 21.9262 10.2665C 23.4604 10.2665 24.573 11.1621 24.573 12.3951C 24.573 13.629 23.4604 14.5237 21.9262 14.5237C 21.8791 14.5237 20.8334 14.5154 19.9729 13.8114L 18.7321 16.8604C 19.8423 16.9724 20.5846 17.7087 20.6185 17.7419C 21.703 18.8306 21.8576 20.2528 20.9896 21.1251C 20.6234 21.4924 20.1506 21.6848 19.6232 21.6848C 18.9289 21.6848 18.2163 21.3539 17.617 20.7519C 17.5343 20.6674 16.8466 19.9368 16.7375 18.8605L 13.698 20.1052C 14.4006 20.9684 14.4097 22.0173 14.4097 22.0646C 14.4097 23.6028 13.517 24.7206 12.2869 24.7206Z"/>
</defs>
</svg>
